Clinical Trial Data Lake with ducklake • ducklake
…
# Get data from the first snapshot version
first_snapshot_id <- versions |>
  slice(1) |>
  pull(snapshot_id)

adsl_v1 <- get_ducklake_table_version(
  table_name = "adsl",
  version = first_snapshot_id
)

# Compare versions - earlier version shouldn't have derived variables added later
adsl_v1 |> collect()
#> # A tibble: 306 × 39
#>    STUDYID      DOMAIN USUBJID  SUBJID RFSTDTC RFENDTC RFXSTDTC RFXENDTC RFICDTC
#>    <chr>        <chr>  <chr>    <chr>  <chr>   <chr>   <chr>    <chr>    <chr>  
#>  1 CDISCPILOT01 DM     01-701-… 1015   2014-0… 2014-0… 2014-01… 2014-07… NA     
#>  2 CDISCPILOT01 DM     01-701-… 1023   2012-0… 2012-0… 2012-08… 2012-09… NA     
#>  3 CDISCPILOT01 DM     01-701-… 1028   2013-0… 2014-0… 2013-07… 2014-01… NA     
#>  4 CDISCPILOT01 DM     01-701-… 1033   2014-0… 2014-0… 2014-03… 2014-03… NA     
#>  5 CDISCPILOT01 DM     01-701-… 1034   2014-0… 2014-1… 2014-07… 2014-12… NA     
#>  6 CDISCPILOT01 DM     01-701-… 1047   2013-0… 2013-0… 2013-02… 2013-03… NA     
#>  7 CDISCPILOT01 DM     01-701-… 1057   NA      NA      NA       NA       NA     
#>  8 CDISCPILOT01 DM     01-701-… 1097   2014-0… 2014-0… 2014-01… 2014-07… NA     
#>  9 CDISCPILOT01 DM     01-701-… 1111   2012-0… 2012-0… 2012-09… 2012-09… NA     
#> 10 CDISCPILOT01 DM     01-701-… 1115   2012-1… 2013-0… 2012-11… 2013-01… NA     
#> # ℹ 296 more rows
#> # ℹ 30 more variables: RFPENDTC <chr>, DTHDTC <chr>, DTHFL <chr>, SITEID <chr>,
#> #   BRTHDTC <chr>, AGE <dbl>, AGEU <chr>, SEX <chr>, RACE <chr>, ETHNIC <chr>,
#> #   ARMCD <chr>, ARM <chr>, ACTARMCD <chr>, ACTARM <chr>, COUNTRY <chr>,
#> #   DMDTC <chr>, DMDY <dbl>, TRTSDTM <dttm>, TRTEDTM <dttm>, TRTSDT <date>,
#> #   TRTEDT <date>, TRTDURD <dbl>, SAFFL <chr>, TRT01P <chr>, TRT01A <chr>,
#> #   AGEGR1 <chr>, AGEGR1N <dbl>, RANDDT <date>, EOSDT <date>, EOSSTT <chr>
adsl_current |> collect()
#> # A tibble: 306 × 42
#>    STUDYID      DOMAIN USUBJID  SUBJID RFSTDTC RFENDTC RFXSTDTC RFXENDTC RFICDTC
#>    <chr>        <chr>  <chr>    <chr>  <chr>   <chr>   <chr>    <chr>    <chr>  
#>  1 CDISCPILOT01 DM     01-701-… 1015   2014-0… 2014-0… 2014-01… 2014-07… NA     
#>  2 CDISCPILOT01 DM     01-701-… 1023   2012-0… 2012-0… 2012-08… 2012-09… NA     
#>  3 CDISCPILOT01 DM     01-701-… 1028   2013-0… 2014-0… 2013-07… 2014-01… NA     
#>  4 CDISCPILOT01 DM     01-701-… 1033   2014-0… 2014-0… 2014-03… 2014-03… NA     
#>  5 CDISCPILOT01 DM     01-701-… 1034   2014-0… 2014-1… 2014-07… 2014-12… NA     
#>  6 CDISCPILOT01 DM     01-701-… 1047   2013-0… 2013-0… 2013-02… 2013-03… NA     
#>  7 CDISCPILOT01 DM     01-701-… 1057   NA      NA      NA       NA       NA     
#>  8 CDISCPILOT01 DM     01-701-… 1097   2014-0… 2014-0… 2014-01… 2014-07… NA     
#>  9 CDISCPILOT01 DM     01-701-… 1111   2012-0… 2012-0… 2012-09… 2012-09… NA     
#> 10 CDISCPILOT01 DM     01-701-… 1115   2012-1… 2013-0… 2012-11… 2013-01… NA     
#> # ℹ 296 more rows
#> # ℹ 33 more variables: RFPENDTC <chr>, DTHDTC <chr>, DTHFL <chr>, SITEID <chr>,
#> #   BRTHDTC <chr>, AGE <dbl>, AGEU <chr>, SEX <chr>, RACE <chr>, ETHNIC <chr>,
#> #   ARMCD <chr>, ARM <chr>, ACTARMCD <chr>, ACTARM <chr>, COUNTRY <chr>,
#> #   DMDTC <chr>, DMDY <dbl>, TRTSDTM <dttm>, TRTEDTM <dttm>, TRTSDT <date>,
#> #   TRTEDT <date>, TRTDURD <dbl>, SAFFL <chr>, TRT01P <chr>, TRT01A <chr>,
#> #   AGEGR1 <chr>, AGEGR1N <dbl>, RANDDT <date>, EOSDT <date>, EOSSTT <chr>, …
…
