ducklake Cookbook • ducklake
…
Metadata and versioning recipes

List all tables

get_ducklake_table("duckdb_tables") |>
  filter(schema_name == "main") |>
  select(table_name) |>
  collect()
#> # A tibble: 25 × 1
#>    table_name                           
#>    <chr>                                
#>  1 ducklake_column                      
#>  2 ducklake_column_mapping              
#>  3 ducklake_column_tag                  
#>  4 ducklake_data_file                   
#>  5 ducklake_delete_file                 
#>  6 ducklake_files_scheduled_for_deletion
#>  7 ducklake_file_column_stats           
#>  8 ducklake_file_partition_value        
#>  9 ducklake_inlined_data_tables         
#> 10 ducklake_metadata                    
#> # ℹ 15 more rows
…
